Lebron James
Stephen A. Smith

Deandre Jordan

Deandre Jordan
Dennis Smith Jr.

Matt Barnes

Joel Anthony

Corey Brewer

Michael Beasley

Carlos Boozer

Joel Anthony

Ryan Bowen

Chase Budinger
Corey Brewer

Andray Blatche

Carlos Boozer

Chauncey Billups

Marco Belinelli

Andrew Bogut

Steph Curry
Stephen Curry
